﻿{
  "configurations": [
    {
      "name": "x64-Debug",
      "generator": "Visual Studio 16 2019 Win64",
      "configurationType": "Debug",
      "inheritEnvironments": [ "msvc_x64_x64" ],
      "buildRoot": "${projectDir}\\out\\build\\${name}",
      "installRoot": "${projectDir}\\out\\install\\${name}",
      "cmakeCommandArgs": "",
      "buildCommandArgs": "",
      "ctestCommandArgs": "",
      "variables": [
        {
          "name": "CMAKE_TOOLCHAIN_FILE",
          "value": "G:\\Development\\vcpkg\\vcpkg\\scripts\\buildsystems\\vcpkg.cmake"
        }
      ]
    }
  ]
}